<svg xmlns="http://www.w3.org/2000/svg" width="22" height="11" viewBox="0 0 22 11">
    <path fill="#BBC1C7" fill-rule="evenodd" d="M11.42 9.533a6.326 6.326 0 0 1-1.303-.218 7.29 7.29 0 0 1-.45-.17 4.034 4.034 0 0 1-2.285-3.652c0-2.22 1.763-4.03 3.93-4.03 2.149 0 3.898 1.78 3.929 3.971h1.418C16.63 2.438 14.242.01 11.311.01c-2.951 0-5.35 2.46-5.35 5.483a5.503 5.503 0 0 0 2.819 4.824c.3.163.738.333.883.378a7.856 7.856 0 0 0 1.584.284c.176.014.795.021.975.021H22V9.55h-9.758c-.128-.003-.697-.01-.822-.017zm.822-2.275c-.101 0-.643-.003-.744-.01a5.057 5.057 0 0 1-.572-.076 2.165 2.165 0 0 1-.42-.157 1.733 1.733 0 0 1-.887-1.522c0-.957.758-1.734 1.692-1.734.918 0 1.659.746 1.69 1.679h1.363c-.027-1.703-1.384-3.076-3.053-3.076-1.689 0-3.06 1.4-3.06 3.131a3.14 3.14 0 0 0 1.676 2.792c.152.09.44.187.521.208.281.076.657.128.965.149.112.01.667.014.785.014v.003H22V7.262h-9.758v-.004zM5.087 10.99H3.66V1.463H1.57V0h3.52v10.99h-.003zM0 2.195v1.408h1.57v7.387h1.375V2.195H0z"/>
</svg>
