<svg xmlns="http://www.w3.org/2000/svg" width="40" height="40" viewBox="0 0 40 40">
	<style>
		path {
			fill: #fff;
		}
	</style>
    <g fill="none" fill-rule="evenodd">
        <circle cx="20" cy="20" r="20" fill="#BBC1C7"/>
        <path d="M21 13v5.999L27 19v2l-6-.001V27h-2v-6.001L13 21v-2l6-.001V13h2z"/>
    </g>
</svg>
