<svg xmlns="http://www.w3.org/2000/svg" width="22" height="22" viewBox="0 0 22 22">
    <path fill="#000" fill-rule="nonzero" d="M.413 6.077a.853.853 0 0 0-.014.131v.906a.898.898 0 0 0 .594.837v1.332c.002.445.36.812.814.833v7.693a.845.845 0 0 0-.814.834v1.328a.908.908 0 0 0-.594.845v.885c0 .165.137.299.305.299h20.578a.302.302 0 0 0 .305-.299v-.885a.908.908 0 0 0-.594-.845v-1.336a.845.845 0 0 0-.814-.833v-7.686a.846.846 0 0 0 .814-.833V7.95a.898.898 0 0 0 .594-.837v-.9a.897.897 0 0 0-.014-.13.306.306 0 0 0 .4-.152.295.295 0 0 0-.154-.393L11.134.035a.31.31 0 0 0-.285 0L.163 5.533a.296.296 0 0 0-.128.404.307.307 0 0 0 .378.14zm1.19 2.392v-.46h3.52v.456l-3.52.004zm7.836 1.65v7.69a.845.845 0 0 0-.814.834v1.272H5.728v-1.272a.845.845 0 0 0-.813-.834v-7.693a.845.845 0 0 0 .813-.833V8.009h2.893V9.28c0 .446.359.814.814.835l.004.002zm-.204-1.65v-.46h3.52v.456l-3.52.004zm7.836 1.65v7.69a.845.845 0 0 0-.813.834v1.272H13.36v-1.272a.845.845 0 0 0-.814-.834v-7.693a.846.846 0 0 0 .814-.833V8.009h2.892V9.28c.001.446.359.814.814.835l.004.002zm-.203-1.65v-.46h3.519v.456l-3.52.004zm3.519 10.99v.456h-3.523v-.457h3.523zm-7.632 0v.456H9.232v-.457h3.523zM9.74 9.523h-.265a.241.241 0 0 1-.243-.24v-.217h3.519v.218c0 .132-.11.239-.244.239H9.74zm2.199.598v7.683h-1.894v-7.683h1.894zm-2.2 8.282h2.767c.135 0 .244.107.244.239v.217H9.231v-.217c0-.132.11-.24.244-.24h.265zm-4.62 1.054v.457h-3.52v-.457h3.52zM1.598 9.291v-.224h3.52v.218c0 .132-.11.239-.245.239H1.837a.241.241 0 0 1-.238-.241v.008zm2.705.837v7.677H2.413v-7.683l1.891.006zM1.6 18.648c0-.131.11-.239.244-.239h3.03c.136 0 .245.107.245.24v.217H1.6v-.217zm19.378 2.18v.586H1.005v-.586c0-.17.14-.31.315-.31h19.341c.172 0 .312.136.316.304v.006zm-.594-2.18v.218h-3.52v-.217c0-.132.11-.24.245-.24h3.037c.13.004.235.106.238.233v.007zm-2.706-.837v-7.689h1.894v7.683l-1.894.006zm2.706-8.52c0 .132-.109.239-.244.239H17.11a.241.241 0 0 1-.244-.24v-.223h3.52l-.003.224zM10.991.633l9.087 4.68H1.904l9.087-4.68zM1.005 6.215c0-.165.137-.3.305-.3h19.362c.168 0 .305.135.305.3v.905a.302.302 0 0 1-.305.299H1.31a.302.302 0 0 1-.305-.299v-.905z"/>
</svg>
