<svg xmlns="http://www.w3.org/2000/svg" width="14" height="16" viewBox="0 0 14 16">
    <path fill="#000" fill-rule="nonzero" d="M9.16 0v.938h-.913v1.078c.868.18 1.69.529 2.427 1.033l1.388-1.426L14 3.613l-1.388 1.425a7.147 7.147 0 0 1 1.142 3.9c0 1.886-.716 3.66-2.015 4.994A6.742 6.742 0 0 1 6.877 16a6.742 6.742 0 0 1-4.863-2.068A7.113 7.113 0 0 1 0 8.938c0-1.886.715-3.66 2.014-4.993a6.778 6.778 0 0 1 3.492-1.93V.938h-.914V0h4.569zM6.878 2.814C3.588 2.814.913 5.56.913 8.938s2.675 6.124 5.964 6.124c3.288 0 5.964-2.747 5.964-6.124s-2.676-6.124-5.964-6.124zm0 .938c2.785 0 5.05 2.326 5.05 5.186s-2.265 5.187-5.05 5.187c-2.785 0-5.051-2.327-5.051-5.187 0-2.86 2.266-5.186 5.05-5.186zm0 .937c-2.282 0-4.138 1.906-4.138 4.25 0 2.342 1.856 4.248 4.138 4.248 2.281 0 4.137-1.906 4.138-4.249 0-2.343-1.857-4.25-4.138-4.25zm.456 1.251v2.53h2.463v.937H6.42V5.94h.913zm4.73-2.991l-.658.675a7.092 7.092 0 0 1 .647.664l.657-.675-.647-.664zM7.332.938H6.42v.954a6.942 6.942 0 0 1 .914 0V.938z"/>
</svg>
