<?xml version="1.0" encoding="UTF-8"?>
<svg width="80px" height="79px" viewBox="0 0 80 79" version="1.1" xmlns="http://www.w3.org/2000/svg" xmlns:xlink="http://www.w3.org/1999/xlink">
    <!-- Generator: Sketch 57.1 (83088) - https://sketch.com -->
    <title>3</title>
    <desc>Created with Sketch.</desc>
    <g id="Page-1" stroke="none" stroke-width="1" fill="none" fill-rule="evenodd">
        <g id="Модуль-В2В---1440" transform="translate(-527.000000, -262.000000)" fill="#BBC1C7" fill-rule="nonzero">
            <path d="M537.464239,322.632465 C540.20138,322.632465 542.433699,324.840651 542.476554,327.571426 L542.47718,327.654335 L542.47718,335.979697 C542.47718,338.720858 540.273766,340.954919 537.547026,340.999326 L537.464239,341 L532.01294,341 C529.27735,341 527.045046,338.79335 527.000673,336.062606 L527,335.979697 L527,327.654335 C527,324.913175 529.204948,322.677577 531.930199,322.633139 L532.01294,322.632465 L537.464239,322.632465 Z M571.842489,301.989958 L577.293788,301.989958 C580.030929,301.989958 582.261714,304.198144 582.306056,306.928919 L582.306729,307.011828 L582.306729,335.979697 C582.306729,338.720858 580.103315,340.954919 577.376575,340.999326 L577.293788,341 L571.842489,341 C569.106899,341 566.874595,338.79335 566.830222,336.062606 L566.829549,335.979697 L566.829549,307.011828 C566.829549,304.270668 569.032963,302.03507 571.759703,301.990632 L571.842489,301.989958 L577.293788,301.989958 L571.842489,301.989958 Z M557.379796,313.353841 C560.116937,313.353841 562.347722,315.562028 562.392064,318.291282 L562.392737,318.374144 L562.392737,335.979697 C562.392737,338.720858 560.189323,340.954919 557.462583,340.999326 L557.379796,341 L551.928498,341 C549.192907,341 546.960603,338.79335 546.91623,336.062606 L546.915557,335.979697 L546.915557,327.061683 C546.915557,326.401612 547.44785,325.868538 548.105387,325.868538 C548.751566,325.868538 549.275859,326.382419 549.296171,327.023093 L549.296782,327.061683 L549.296782,335.979697 C549.296782,337.416208 550.449926,338.587749 551.877983,338.6148 L551.928498,338.615278 L557.379796,338.615278 C558.8142,338.615278 559.984023,337.46044 560.011034,336.030286 L560.011512,335.979697 L560.011512,318.374144 C560.011512,316.937634 558.858368,315.766093 557.430311,315.739042 L557.379796,315.738564 L551.928498,315.738564 C550.494094,315.738564 549.324271,316.893401 549.29726,318.323555 L549.296782,318.374144 L549.296782,328.562129 C549.296782,329.220632 548.762924,329.755274 548.105387,329.755274 C547.460742,329.755274 546.93648,329.241393 546.916168,328.600719 L546.915557,328.562129 L546.915557,318.374144 C546.915557,315.634536 549.118971,313.398953 551.845711,313.354515 L551.928498,313.353841 L557.379796,313.353841 Z M594.483696,262 C595.964721,262 597.290755,262.766686 598.031267,264.052335 L606.444616,278.64602 C607.185128,279.930101 607.185128,281.463473 606.444616,282.749122 C605.704103,284.033203 604.378069,284.799889 602.897045,284.799889 L602.222286,284.799889 L602.222286,335.978129 C602.222286,338.746978 599.972568,340.998432 597.20778,340.998432 L591.758047,340.998432 C588.993258,340.998432 586.743541,338.746978 586.743541,335.978129 L586.743541,294.696251 C586.743541,294.03618 587.277399,293.503106 587.934936,293.503106 C588.594039,293.503106 589.126331,294.037748 589.126331,294.696251 L589.126331,335.978129 C589.126331,337.43154 590.306768,338.61371 591.758047,338.61371 L597.20778,338.61371 C598.659059,338.61371 599.839495,337.43154 599.839495,335.978129 L599.839495,283.606744 C599.839495,282.946673 600.373353,282.413599 601.030891,282.413599 L602.895479,282.413599 C603.515443,282.413599 604.071219,282.092186 604.3812,281.554409 C604.691182,281.015063 604.691182,280.373807 604.3812,279.836029 L595.967852,265.242344 C595.65787,264.704567 595.102094,264.383154 594.482131,264.383154 C593.862167,264.383154 593.306391,264.704567 592.996409,265.242344 L584.583061,279.836029 C584.273079,280.375375 584.273079,281.016631 584.583061,281.554409 C584.893043,282.092186 585.448818,282.413599 586.068782,282.413599 L587.936502,282.413599 C588.595605,282.413599 589.127897,282.948241 589.127897,283.606744 L589.127897,297.76613 C589.127897,298.426201 588.594039,298.959275 587.936502,298.959275 C587.278964,298.959275 586.745106,298.424633 586.745106,297.76613 L586.745106,284.798321 L586.070348,284.798321 C584.589323,284.798321 583.263289,284.031635 582.522777,282.747554 C581.782264,281.463473 581.782264,279.928533 582.522777,278.644452 L590.936125,264.050767 C591.676637,262.766686 593.002671,262 594.483696,262 Z M537.464239,325.018755 L532.01294,325.018755 C530.578537,325.018755 529.408714,326.173592 529.381702,327.603747 L529.381225,327.654335 L529.381225,335.979697 C529.381225,337.416208 530.534369,338.587749 531.962426,338.6148 L532.01294,338.615278 L537.465805,338.615278 C538.900208,338.615278 540.070031,337.46044 540.097043,336.030286 L540.09752,335.979697 L540.095954,335.979697 L540.095954,327.654335 C540.095954,326.200925 538.915518,325.018755 537.464239,325.018755 Z M577.295354,304.376248 L571.844055,304.376248 C570.409651,304.376248 569.239828,305.531085 569.212817,306.96124 L569.21234,307.011828 L569.21234,335.979697 C569.21234,337.416208 570.365483,338.587749 571.79354,338.6148 L571.844055,338.615278 L577.295354,338.615278 C578.729757,338.615278 579.89958,337.46044 579.926592,336.030286 L579.927069,335.979697 L579.927069,307.011828 C579.927069,305.558418 578.746633,304.376248 577.295354,304.376248 Z" id="3"></path>
        </g>
    </g>
</svg>