<svg xmlns="http://www.w3.org/2000/svg" width="40" height="40" viewBox="0 0 40 40">
    <path fill="#BBC1C7" fill-rule="nonzero" d="M21.333 0c.142 0 .279.045.392.127l.08.068 4 4c.1.1.165.229.187.367l.008.105v10.666a.667.667 0 0 1-.568.66l-.099.007h-4.666v8.167l15.52 4.526a.667.667 0 0 1 .473.543l.007.097v5.334a.667.667 0 0 1-.389.606l-.091.034-16 4.666A.658.658 0 0 1 20 40l-.094-.007-.093-.02-16-4.666a.667.667 0 0 1-.473-.543l-.007-.097v-5.334c0-.263.155-.498.389-.606l.091-.034 15.52-4.526V16h-4.666a.667.667 0 0 1-.66-.568L14 15.333V.667c0-.335.246-.612.568-.66L14.667 0h6.666zM4.667 30.222v3.945l14.666 4.278V34.5L4.667 30.222zm30.666 0L20.667 34.5v3.945l14.666-4.278v-3.945zm-14.666-4.667v3.502l1.528-1.528.943.942-2.667 2.667a.665.665 0 0 1-.86.07l-.082-.07-2.667-2.667.943-.942 1.528 1.528v-3.502L6.381 29.333 20 33.305l13.62-3.972-12.953-3.778zM7.333 0c.142 0 .279.045.392.127l.08.068 4 4c.1.1.165.229.187.367l.008.105v10.666a.667.667 0 0 1-.568.66l-.099.007H6.667c0 1.053.817 1.918 1.85 1.995l.15.005h2a3.338 3.338 0 0 1 3.328 3.15l.005.183v1.058l1.529-1.529.942.943-2.666 2.666a.665.665 0 0 1-.86.07l-.083-.07-2.667-2.666.943-.943 1.529 1.529v-1.058a2.003 2.003 0 0 0-1.851-1.994l-.15-.006h-2a3.338 3.338 0 0 1-3.328-3.15L5.333 16H.667a.667.667 0 0 1-.66-.568L0 15.333V.667C0 .332.246.055.568.007L.667 0h6.666zm28 0c.142 0 .279.045.392.127l.08.068 4 4c.1.1.165.229.187.367l.008.105v10.666a.667.667 0 0 1-.568.66l-.099.007h-4.666a3.338 3.338 0 0 1-3.151 3.328l-.183.005h-2a2.003 2.003 0 0 0-1.994 1.851l-.006.15v1.057l1.529-1.529.943.943-2.667 2.666a.665.665 0 0 1-.86.07l-.083-.07-2.666-2.666.942-.943L26 22.391v-1.058a3.338 3.338 0 0 1 3.15-3.328l.183-.005h2a2.003 2.003 0 0 0 1.995-1.851l.005-.149h-4.666a.667.667 0 0 1-.66-.568L28 15.333V.667c0-.335.246-.612.568-.66L28.667 0h6.666zM20.667 1.333h-5.334v13.334h9.334V5.333h-3.334a.667.667 0 0 1-.66-.568l-.006-.098V1.333zm-14 0H1.333v13.334h9.334V5.333H7.333a.667.667 0 0 1-.66-.568l-.006-.098V1.333zm28 0h-5.334v13.334h9.334V5.333h-3.334a.667.667 0 0 1-.66-.568l-.006-.098V1.333zM9.333 12v1.333H2.667V12h6.666zm28 0v1.333h-6.666V12h6.666zM18 12v1.333h-1.333V12H18zm2.667 0v1.333h-1.334V12h1.334zm2.666 0v1.333H22V12h1.333zm0-2.667v1.334h-6.666V9.333h6.666zm-14 0v1.334H2.667V9.333h6.666zm28 0v1.334h-6.666V9.333h6.666zm-14-2.666V8h-6.666V6.667h6.666zm-14 0V8H2.667V6.667h6.666zm28 0V8h-6.666V6.667h6.666zM19.333 4v1.333h-2.666V4h2.666zm-14 0v1.333H2.667V4h2.666zm28 0v1.333h-2.666V4h2.666zM22 2.276V4h1.724L22 2.276zm-14 0V4h1.724L8 2.276zm28 0V4h1.724L36 2.276z"/>
</svg>
