<svg xmlns="http://www.w3.org/2000/svg" width="22" height="17" viewBox="0 0 22 17">
    <path fill="#BBC1C7" fill-rule="nonzero" d="M15.517 0c1.88 0 3.782 1.426 3.782 4.15v1.264c0 1.025-.538 2.022-1.448 2.702.93.28 1.766.729 2.423 1.313 1.075.954 1.672 2.243 1.726 3.727a.442.442 0 0 1-.293.435c-1.61.563-3.469.894-5.373.957l-.342.007-.327.003h-.189c-.213 0-.438-.004-.668-.01h-.001l-.537-.025a19.828 19.828 0 0 1-1.594-.16c.105.393.166.806.182 1.235a.442.442 0 0 1-.293.435c-1.612.563-3.47.894-5.373.955-.223.008-.447.012-.67.012h-.096c-.248.001-.506-.003-.76-.012-1.903-.061-3.76-.392-5.373-.955A.442.442 0 0 1 0 15.598a5.383 5.383 0 0 1 .414-1.92.43.43 0 0 1 .57-.229c.219.097.32.358.224.582-.167.394-.274.82-.32 1.27 1.272.412 2.694.675 4.162.771l-.16-.448a.452.452 0 0 1-.018-.235l.61-3.22-.34-.943a6.387 6.387 0 0 0-1.783.59.432.432 0 0 1-.58-.198.447.447 0 0 1 .193-.592 6.976 6.976 0 0 1 1.162-.466 4.005 4.005 0 0 1-.282-.229c-.76-.677-1.18-1.556-1.18-2.477V5.826c0-1.021.437-1.934 1.229-2.57.694-.557 1.638-.876 2.591-.876 1.105 0 2.12.425 2.785 1.168.68.76.983 1.817.88 3.059v1.247c0 1.026-.538 2.024-1.448 2.704.344.103.675.23.99.378.677-1.331 1.952-2.328 3.575-2.818a3.998 3.998 0 0 1-.28-.228c-.762-.677-1.18-1.556-1.18-2.476V4.152c0-1.276.397-2.35 1.148-3.105A3.571 3.571 0 0 1 15.517 0zM6.57 12.573h-.282l-.543 2.864.24.675c.147.003.295.004.441.003.15 0 .299 0 .447-.003l.24-.675-.543-2.864zm1.146-1.347l-.34.942.61 3.221a.452.452 0 0 1-.019.236l-.16.447c1.469-.096 2.89-.36 4.163-.77a4.397 4.397 0 0 0-.314-1.263.449.449 0 0 1-.043-.1c-.398-.885-1.074-1.539-1.868-1.993h-.002a.432.432 0 0 1-.091-.052 6.442 6.442 0 0 0-1.936-.668zm7.996-1.095h-.283l-.543 2.864.24.675a20.396 20.396 0 0 0 .539.003c.113 0 .23 0 .35-.003l.24-.675-.543-2.864zm-1.43-1.346c-1.767.317-3.158 1.255-3.824 2.574.24.157.467.327.675.512.502.446.9.964 1.186 1.542.613.103 1.24.176 1.872.218l-.16-.449a.452.452 0 0 1-.018-.235l.611-3.22zm2.575 0l-.34.941.61 3.221a.452.452 0 0 1-.018.236l-.16.448c1.47-.097 2.892-.36 4.163-.772-.25-2.485-2.277-3.719-4.255-4.075zM1.43 12.153a.426.426 0 0 1 .612-.002.45.45 0 0 1 .001.626.426.426 0 0 1-.618.007.45.45 0 0 1 0-.625zm4.671-.83l.132.364h.395l.13-.362c-.107.01-.214.015-.32.015h-.025c-.104 0-.208-.006-.312-.016zM4.96 6.22c-.458.625-.96.772-1.422.806v.83c0 1.074.867 2.077 1.98 2.449a.07.07 0 0 0 .003 0l.011.003.015.005a2.888 2.888 0 0 0 .87.145c.29.002.583-.046.87-.139l.007-.002c.272-.09.536-.218.782-.385.761-.515 1.216-1.291 1.216-2.077v-.82H7.099c-1.174 0-1.678-.358-2.138-.815zm10.282 2.664l.131.364h.394l.132-.364c-.108.01-.215.016-.322.016h-.024c-.104 0-.208-.006-.311-.016zm.241-5.207c-.525.501-1.364.917-1.82.918h-.984v.82c0 1.069.858 2.067 1.963 2.443a.423.423 0 0 1 .105.034c.26.078.534.122.811.124a2.976 2.976 0 0 0 1.66-.526c.761-.515 1.216-1.29 1.216-2.075v-.821h-.863c-.979 0-1.668-.41-2.088-.917zm-8.99-.412c-1.433 0-2.955.898-2.955 2.562v.312c.372-.04.64-.197.96-.83a.434.434 0 0 1 .384-.24c.114 0 .224.045.305.128l.176.182c.493.514.74.772 1.736.772h2.213c.004-.827-.222-1.5-.674-2.005-.5-.56-1.283-.88-2.145-.88zm9.024-2.38c-1.317 0-2.645.878-2.819 2.825h.964c.1 0 .408-.098.81-.358.407-.263.592-.487.62-.558a.436.436 0 0 1 .383-.344.432.432 0 0 1 .44.274c.092.231.483.985 1.656.985h.842C18.228 1.772 16.826.885 15.517.885z"/>
</svg>
