<svg xmlns="http://www.w3.org/2000/svg" width="16" height="12" viewBox="0 0 16 12">
    <path fill="#0097FD" fill-rule="nonzero" d="M8 0c1.632 0 3.276.675 4.886 2.008 1.285 1.064 2.217 2.28 2.615 2.799.074.095.2.28.246.348l.016.022.237.35-.237.351c-.018.026-.176.26-.262.37-.398.52-1.33 1.736-2.615 2.8-1.61 1.332-3.254 2.008-4.886 2.008-1.632 0-3.276-.676-4.886-2.008C1.83 7.984.897 6.768.5 6.248c-.074-.095-.2-.28-.246-.347l-.016-.023L0 5.528l.237-.35c.018-.027.176-.26.262-.371.398-.52 1.33-1.736 2.615-2.8C4.724.676 6.368 0 8 0zm0 1.25c-2.114 0-4.294 1.439-6.48 4.278C3.706 8.367 5.886 9.806 8 9.806c2.114 0 4.294-1.44 6.48-4.278-2.186-2.84-4.366-4.279-6.48-4.279zm0 .718a3.564 3.564 0 0 1 3.56 3.56A3.564 3.564 0 0 1 8 9.088a3.564 3.564 0 0 1-3.56-3.56A3.564 3.564 0 0 1 8 1.968zm0 1.249a2.314 2.314 0 0 0-2.311 2.31A2.314 2.314 0 0 0 8 7.84a2.314 2.314 0 0 0 2.311-2.311A2.314 2.314 0 0 0 8 3.217zM8 4.31a1.218 1.218 0 1 1 0 2.436A1.218 1.218 0 0 1 8 4.31z"/>
</svg>
