<svg xmlns="http://www.w3.org/2000/svg" width="31" height="40" viewBox="0 0 31 40">
    <path fill="#BBC1C7" fill-rule="nonzero" d="M19.623 0c.978 0 1.783.748 1.857 1.696l.006.144v6.927h7.65c.98 0 1.784.749 1.858 1.696l.006.144v15.029c0 .966-.758 1.76-1.718 1.834l-.145.006h-7.651V38.16c0 .966-.758 1.761-1.718 1.834l-.145.006H1.863a1.856 1.856 0 0 1-1.857-1.696L0 38.16V1.84C0 .874.758.079 1.718.006L1.863 0h17.76zm.674 36.243H1.189v1.917c0 .334.25.61.575.658l.1.008h17.759a.672.672 0 0 0 .666-.567l.008-.099v-1.917zm-8.285.704c.328 0 .594.263.594.587a.59.59 0 0 1-.498.58l-.096.007H9.474a.59.59 0 0 1-.594-.587.59.59 0 0 1 .498-.58l.096-.007h2.538zm8.285-32.015H1.189v30.136h19.108v-7.592h-6.185l-4.915 3.64a.603.603 0 0 1-.944-.378l-.008-.092V15.303c0-.324.267-.587.595-.587.296 0 .541.213.587.492l.008.095v14.169l4.123-3.053a.598.598 0 0 1 .26-.11l.096-.008h15.223a.672.672 0 0 0 .666-.567l.008-.098v-15.03a.67.67 0 0 0-.575-.657l-.1-.008H10.11a.672.672 0 0 0-.667.568l-.007.098v1.878a.591.591 0 0 1-.595.588.593.593 0 0 1-.587-.492l-.008-.096v-1.878c0-.966.759-1.76 1.718-1.834l.146-.006h10.188V4.932zm-.674 9.471c1.406 0 3.766.646 3.766 4.97 0 2.112.59 2.487.705 2.54l.01.005h.593c.328 0 .595.263.595.587a.59.59 0 0 1-.499.58l-.096.007h-3.213l.002.04c0 1.014-.836 1.839-1.863 1.839-1.028 0-1.864-.825-1.864-1.84l.001-.02v-.019H14.55a.591.591 0 0 1-.595-.587.59.59 0 0 1 .498-.58l.097-.007h.592c.082-.032.716-.355.716-2.544 0-4.325 2.36-4.97 3.766-4.97zm.67 8.689h-1.342l-.002.04a.67.67 0 0 0 .674.664.67.67 0 0 0 .674-.665l-.003-.039zm-.573-7.514h-.194c-.717.008-2.48.176-2.48 3.796 0 1.087-.151 1.856-.368 2.4l-.06.144h6.01c-.248-.55-.429-1.359-.429-2.544 0-3.62-1.763-3.788-2.48-3.796zm3.708-1.175c1.377 0 2.498 1.106 2.498 2.466a.591.591 0 0 1-.595.587.591.591 0 0 1-.595-.587c0-.712-.586-1.292-1.308-1.292a.591.591 0 0 1-.594-.587c0-.324.266-.587.594-.587zm0-2.505c2.776 0 5.035 2.23 5.035 4.97a.591.591 0 0 1-.595.588.591.591 0 0 1-.594-.587c0-2.094-1.725-3.796-3.846-3.796a.591.591 0 0 1-.594-.588c0-.324.266-.587.594-.587zm-7.61 2.505c.327 0 .594.263.594.587a.591.591 0 0 1-.595.587c-.721 0-1.308.58-1.308 1.292a.591.591 0 0 1-.595.587.591.591 0 0 1-.594-.587c0-1.36 1.12-2.466 2.497-2.466zm0-2.505c.327 0 .594.263.594.587a.591.591 0 0 1-.595.588c-2.12 0-3.845 1.702-3.845 3.796a.591.591 0 0 1-.595.587.591.591 0 0 1-.594-.587c0-2.74 2.258-4.97 5.034-4.97zm3.805-10.724H1.863a.672.672 0 0 0-.666.567l-.008.099v1.917h19.108V1.84a.67.67 0 0 0-.674-.666zm-8.246.705c.329 0 .595.262.595.587a.59.59 0 0 1-.498.58l-.097.007H10.11a.591.591 0 0 1-.595-.587.59.59 0 0 1 .498-.58l.097-.007h1.268z"/>
</svg>
