<svg xmlns="http://www.w3.org/2000/svg" width="12" height="6" viewBox="0 0 12 6">
    <path fill="#000" fill-rule="nonzero" d="M.427 2.008A1.125 1.125 0 0 1 1.823.242l4.18 3.305L10.178.252a1.125 1.125 0 1 1 1.394 1.766C9.147 3.96 7.77 5.045 7.444 5.276c-.49.346-.867.726-1.437.724-.577.002-.894-.286-1.444-.724-.367-.293-1.746-1.382-4.136-3.268z"/>
</svg>
