<svg xmlns="http://www.w3.org/2000/svg" width="16" height="22" viewBox="0 0 16 22">
    <path fill="#000" fill-rule="nonzero" d="M15.56 0a.44.44 0 0 1 .433.36L16 .438v17.514a.437.437 0 0 1-.074.243l-.055.067-3.623 3.61a.441.441 0 0 1-.225.12l-.086.008H.44a.44.44 0 0 1-.433-.36L0 21.562V.438a.44.44 0 0 1 .36-.43L.44 0h15.12zm-.44.877H.88v20.246h10.617l-.003-3.173a.439.439 0 0 1 .354-.43l.086-.009 3.186.003V.877zm-2.746 17.511l.002 2.117L14.5 18.39l-2.125-.002zm-7.867-2.576c1.107 0 2.007.896 2.006 1.998 0 1.102-.9 1.999-2.006 1.999a2.005 2.005 0 0 1-2.006-1.999c0-1.102.9-1.998 2.006-1.998zm0 .876c-.621 0-1.126.503-1.126 1.122a1.126 1.126 0 0 0 2.253 0c0-.619-.505-1.122-1.127-1.122zm5.736.754a.439.439 0 0 1 .08.87l-.08.007h-2.42a.44.44 0 0 1-.078-.87l.079-.007h2.42zm2.64-4.864h.242a.439.439 0 0 1 .079.87l-.08.006h-.241a.44.44 0 0 1-.08-.87l.08-.006h.242zm-1.54 0a.44.44 0 0 1 0 .877H2.876a.44.44 0 1 1 0-.877zm1.782-1.49a.44.44 0 0 1 .079.87l-.08.006H2.876a.44.44 0 0 1-.079-.87l.08-.006h10.249zm0-1.622a.44.44 0 0 1 .079.87l-.08.007H2.876a.44.44 0 0 1-.079-.87l.08-.007h10.249zm0-1.49a.44.44 0 0 1 .079.87l-.08.006H2.876a.44.44 0 0 1-.079-.87l.08-.006h10.249zm-.022-3.462a.44.44 0 0 1 .079.87l-.08.006h-6.51a.44.44 0 0 1-.079-.87l.08-.006h6.51zM4.349 2.629a.44.44 0 0 1 .079.87l-.08.007H3.074a.44.44 0 0 1-.079-.87l.08-.007h1.275zm8.754 0a.44.44 0 0 1 .079.87l-.08.007H9.277a.44.44 0 0 1-.08-.87l.08-.007h3.827z"/>
</svg>
